
-- NEW RUN, datetime: 2022-04-30 14:39:12.511959 -- test_name: spark_batch_SQL_v2_shortened

2022-04-30 14:39:12.520489	100.0	22.0	
2022-04-30 14:39:13.022310	0.0	22.0	
2022-04-30 14:39:13.524533	0.0	22.0	
2022-04-30 14:39:14.026754	0.0	22.0	
2022-04-30 14:39:14.529072	0.0	22.0	
2022-04-30 14:39:15.031239	0.0	22.0	
2022-04-30 14:39:15.533515	1.0	22.0	
2022-04-30 14:39:16.036615	2.0	22.0	
2022-04-30 14:39:16.538760	0.0	22.0	
2022-04-30 14:39:17.040929	0.0	22.0	
2022-04-30 14:39:17.543370	1.0	22.0	
2022-04-30 14:39:18.045687	1.0	22.0	
2022-04-30 14:39:18.547949	0.0	22.0	
2022-04-30 14:39:19.050298	0.0	22.0	
2022-04-30 14:39:19.552656	1.0	22.0	
2022-04-30 14:39:20.054791	0.0	22.0	
2022-04-30 14:39:20.556954	0.0	22.0	
2022-04-30 14:39:21.059820	0.0	22.0	
2022-04-30 14:39:21.562344	1.0	22.0	
2022-04-30 14:39:22.064587	0.0	22.0	
2022-04-30 14:39:22.566919	0.0	22.0	
2022-04-30 14:39:23.069227	0.0	22.0	
2022-04-30 14:39:23.571911	1.0	22.0	
2022-04-30 14:39:24.074328	1.0	22.0	
2022-04-30 14:39:24.576740	1.0	22.0	
2022-04-30 14:39:25.079088	0.0	22.0	
2022-04-30 14:39:25.581496	1.0	22.0	
2022-04-30 14:39:26.084606	1.0	22.0	
2022-04-30 14:39:26.586897	0.0	22.0	
2022-04-30 14:39:27.089200	0.0	22.0	
2022-04-30 14:39:27.591582	2.0	22.0	
2022-04-30 14:39:28.093957	0.0	22.0	
2022-04-30 14:39:28.596506	2.0	22.0	
2022-04-30 14:39:29.099029	0.0	22.0	
2022-04-30 14:39:29.601421	1.0	22.0	
2022-04-30 14:39:30.103691	0.0	22.0	
2022-04-30 14:39:30.606186	0.0	22.0	
2022-04-30 14:39:31.109014	0.0	22.0	
2022-04-30 14:39:31.611183	0.0	22.0	
2022-04-30 14:39:32.113322	1.0	22.0	
2022-04-30 14:39:32.615499	1.0	22.0	
2022-04-30 14:39:33.117715	1.0	22.0	
2022-04-30 14:39:33.619972	1.0	22.0	
2022-04-30 14:39:34.122271	1.0	22.0	
2022-04-30 14:39:34.624665	1.0	22.0	
2022-04-30 14:39:35.127032	0.0	22.0	
2022-04-30 14:39:35.629308	1.0	22.0	
2022-04-30 14:39:36.132721	1.0	22.0	
2022-04-30 14:39:36.635272	0.0	22.0	
2022-04-30 14:39:37.137677	1.0	22.0	
2022-04-30 14:39:37.639984	1.0	22.0	
2022-04-30 14:39:38.142588	1.0	22.0	
2022-04-30 14:39:38.644869	0.0	22.0	
2022-04-30 14:39:39.147322	0.0	22.0	
2022-04-30 14:39:39.649805	0.0	22.0	
2022-04-30 14:39:40.152451	1.0	22.0	
2022-04-30 14:39:40.654728	0.0	22.0	
2022-04-30 14:39:41.157698	0.0	22.0	
2022-04-30 14:39:41.659957	0.0	22.0	
2022-04-30 14:39:42.162420	1.0	22.0	
2022-04-30 14:39:42.664888	0.0	22.0	
2022-04-30 14:39:43.167126	0.0	22.0	
2022-04-30 14:39:43.669436	0.0	22.0	
2022-04-30 14:39:44.171743	0.0	22.0	
2022-04-30 14:39:44.673892	12.1	22.0	
2022-04-30 14:39:45.176666	28.4	22.0	
2022-04-30 14:39:45.679847	2.0	22.0	
2022-04-30 14:39:46.183938	1.0	22.0	
2022-04-30 14:39:46.687206	1.0	22.0	
2022-04-30 14:39:47.190186	1.0	22.0	
2022-04-30 14:39:47.692959	0.0	22.0	
2022-04-30 14:39:48.195612	0.0	22.0	
2022-04-30 14:39:48.698460	0.0	22.0	
2022-04-30 14:39:49.201109	0.0	22.1	
2022-04-30 14:39:49.703704	0.0	22.0	
2022-04-30 14:39:50.206546	1.0	22.0	
2022-04-30 14:39:50.709378	0.0	22.0	
2022-04-30 14:39:51.213177	0.0	22.0	
2022-04-30 14:39:51.716289	0.0	22.0	
2022-04-30 14:39:52.218961	1.0	22.0	
2022-04-30 14:39:52.721855	1.0	22.0	
2022-04-30 14:39:53.224744	1.0	22.0	
2022-04-30 14:39:53.727513	0.0	22.0	
2022-04-30 14:39:54.230245	0.0	22.0	
2022-04-30 14:39:54.732938	0.0	22.0	
2022-04-30 14:39:55.235902	0.0	22.0	
2022-04-30 14:39:55.738734	0.0	22.0	
2022-04-30 14:39:56.241987	46.0	22.1	
2022-04-30 14:39:56.744010	52.6	22.1	
2022-04-30 14:39:57.246277	52.5	22.1	
2022-04-30 14:39:57.749348	50.5	22.1	
2022-04-30 14:39:58.252117	50.5	22.1	
2022-04-30 14:39:58.755006	52.5	22.1	
2022-04-30 14:39:59.257896	35.0	22.3	
2022-04-30 14:39:59.760660	76.0	23.2	
2022-04-30 14:40:00.262848	67.0	23.9	
2022-04-30 14:40:00.765056	47.4	24.6	
2022-04-30 14:40:01.269370	0.0	24.6	
2022-04-30 14:40:01.772121	24.2	24.7	
2022-04-30 14:40:02.274115	89.1	25.0	
2022-04-30 14:40:02.775643	84.0	26.1	
2022-04-30 14:40:03.277305	80.8	26.3	
2022-04-30 14:40:03.779557	63.3	27.6	
2022-04-30 14:40:04.281904	57.1	28.2	
2022-04-30 14:40:04.784740	1.0	28.2	
2022-04-30 14:40:05.287420	1.0	28.2	
2022-04-30 14:40:05.790432	1.0	28.2	
2022-04-30 14:40:06.294264	1.0	28.2	
2022-04-30 14:40:06.797025	1.0	28.2	
2022-04-30 14:40:07.299801	0.0	28.2	
2022-04-30 14:40:07.802613	1.0	28.2	
2022-04-30 14:40:08.305282	0.0	28.2	
2022-04-30 14:40:08.808039	1.0	28.2	
2022-04-30 14:40:09.311168	1.0	28.2	
2022-04-30 14:40:09.814086	0.0	28.2	
2022-04-30 14:40:10.317076	0.0	28.2	
2022-04-30 14:40:10.819819	10.9	28.2	
2022-04-30 14:40:11.323468	1.0	28.2	
2022-04-30 14:40:11.826353	2.0	28.2	
2022-04-30 14:40:12.329346	0.0	28.2	
2022-04-30 14:40:12.832070	0.0	28.2	
2022-04-30 14:40:13.334719	63.0	28.4	
2022-04-30 14:40:13.836638	87.0	28.9	
2022-04-30 14:40:14.338440	96.0	29.1	
2022-04-30 14:40:14.840108	100.0	30.7	
2022-04-30 14:40:15.342465	77.2	31.5	
2022-04-30 14:40:15.845343	0.0	31.5	
2022-04-30 14:40:16.348986	0.0	31.5	
2022-04-30 14:40:16.851641	2.0	31.5	
2022-04-30 14:40:17.354146	0.0	31.5	
2022-04-30 14:40:17.856871	6.9	31.6	
2022-04-30 14:40:18.359866	5.0	31.6	
2022-04-30 14:40:18.862809	1.0	31.6	
2022-04-30 14:40:19.365756	0.0	31.6	
2022-04-30 14:40:19.868508	1.0	31.5	
2022-04-30 14:40:20.371262	0.0	31.5	
2022-04-30 14:40:20.873548	2.0	31.5	
2022-04-30 14:40:21.375779	0.0	31.5	
2022-04-30 14:40:21.878065	10.0	31.5	
2022-04-30 14:40:22.380472	1.0	31.5	
2022-04-30 14:40:22.882892	0.0	31.5	
2022-04-30 14:40:23.385307	1.0	31.5	
2022-04-30 14:40:23.887742	2.0	31.5	
2022-04-30 14:40:24.390050	0.0	31.5	
2022-04-30 14:40:24.892411	1.0	31.5	
2022-04-30 14:40:25.394773	0.0	31.5	
2022-04-30 14:40:25.897043	4.0	31.5	
2022-04-30 14:40:26.399388	0.0	31.5	
2022-04-30 14:40:26.901833	2.0	31.5	
2022-04-30 14:40:27.404037	76.3	31.8	
2022-04-30 14:40:27.905816	89.1	33.2	
2022-04-30 14:40:28.407342	48.0	33.5	
2022-04-30 14:40:28.908577	37.4	33.7	
2022-04-30 14:40:29.410523	20.0	33.9	
2022-04-30 14:40:29.912613	87.1	34.3	
2022-04-30 14:40:30.414211	87.9	34.5	
2022-04-30 14:40:30.916841	91.8	35.4	
2022-04-30 14:40:31.418801	91.9	39.1	
2022-04-30 14:40:31.920628	97.0	39.3	
2022-04-30 14:40:32.422605	100.0	39.5	
2022-04-30 14:40:32.924676	95.0	41.6	
2022-04-30 14:40:33.426690	100.0	41.6	
2022-04-30 14:40:33.928633	94.9	43.2	
2022-04-30 14:40:34.430503	80.0	43.9	
2022-04-30 14:40:34.932431	70.3	43.9	
2022-04-30 14:40:35.434836	68.0	44.8	
2022-04-30 14:40:35.937789	64.0	47.1	
2022-04-30 14:40:36.440590	58.4	47.1	
2022-04-30 14:40:36.943309	51.0	47.1	
2022-04-30 14:40:37.446056	51.0	47.4	
2022-04-30 14:40:37.948810	60.8	50.9	
2022-04-30 14:40:38.450223	49.0	50.9	
2022-04-30 14:40:38.952651	85.7	50.9	
2022-04-30 14:40:39.454731	92.9	51.1	
2022-04-30 14:40:39.956748	88.0	51.3	
2022-04-30 14:40:40.458584	92.9	51.3	
2022-04-30 14:40:40.960627	94.1	51.3	
2022-04-30 14:40:41.462550	90.8	51.9	
2022-04-30 14:40:41.964418	78.8	51.9	
2022-04-30 14:40:42.467370	80.6	51.9	
2022-04-30 14:40:42.970279	75.7	51.9	
2022-04-30 14:40:43.472535	9.9	52.1	
2022-04-30 14:40:43.974986	69.7	54.5	
2022-04-30 14:40:44.476560	80.0	54.8	
2022-04-30 14:40:44.978490	68.7	54.8	
2022-04-30 14:40:45.480686	69.0	54.8	
2022-04-30 14:40:45.982755	62.2	55.7	
2022-04-30 14:40:46.485203	65.3	55.7	
2022-04-30 14:40:46.987476	64.3	55.7	
2022-04-30 14:40:47.490894	59.6	55.7	
2022-04-30 14:40:47.993354	64.6	55.7	
2022-04-30 14:40:48.495582	2.0	55.8	
2022-04-30 14:40:48.998204	64.6	58.0	
2022-04-30 14:40:49.500353	93.0	57.9	
2022-04-30 14:40:50.002225	92.0	57.9	
2022-04-30 14:40:50.504504	65.3	58.0	
2022-04-30 14:40:51.006541	65.0	58.0	
2022-04-30 14:40:51.508461	32.3	58.0	
2022-04-30 14:40:52.010918	17.6	58.1	
2022-04-30 14:40:52.513654	15.0	58.1	
2022-04-30 14:40:53.016108	21.4	58.1	
2022-04-30 14:40:53.518170	11.0	58.1	
2022-04-30 14:40:54.020947	32.0	58.3	
2022-04-30 14:40:54.522871	12.9	58.3	
2022-04-30 14:40:55.024877	28.9	58.3	
2022-04-30 14:40:55.527783	24.0	58.3	
2022-04-30 14:40:56.030380	22.8	58.4	
2022-04-30 14:40:56.532349	9.2	58.4	
2022-04-30 14:40:57.034779	19.8	58.4	
2022-04-30 14:40:57.537022	22.8	58.4	
2022-04-30 14:40:58.039797	24.2	58.5	
2022-04-30 14:40:58.541725	14.3	58.4	
2022-04-30 14:40:59.044121	9.1	58.4	
2022-04-30 14:40:59.546838	11.9	58.5	
2022-04-30 14:41:00.049623	12.0	58.6	
2022-04-30 14:41:00.552101	6.1	58.7	
2022-04-30 14:41:01.054326	7.9	58.8	
2022-04-30 14:41:01.556945	18.0	59.6	
2022-04-30 14:41:02.059292	12.0	59.6	
2022-04-30 14:41:02.561968	8.9	59.6	
2022-04-30 14:41:03.064658	8.8	59.6	
2022-04-30 14:41:03.567048	9.0	59.6	
2022-04-30 14:41:04.069064	8.0	59.6	
2022-04-30 14:41:04.571692	11.1	59.6	
2022-04-30 14:41:05.074476	5.1	59.6	
2022-04-30 14:41:05.577316	6.0	59.6	
2022-04-30 14:41:06.080593	10.0	59.6	
2022-04-30 14:41:06.583541	10.1	59.6	
2022-04-30 14:41:07.086180	11.0	59.6	
2022-04-30 14:41:07.588083	8.1	59.6	
2022-04-30 14:41:08.094203	10.9	59.6	
2022-04-30 14:41:08.596959	10.9	59.6	
2022-04-30 14:41:09.099842	11.0	59.6	
2022-04-30 14:41:09.603507	6.9	59.6	
2022-04-30 14:41:10.105911	9.9	59.6	
2022-04-30 14:41:10.608711	14.9	59.6	
2022-04-30 14:41:11.111584	6.1	59.6	
2022-04-30 14:41:11.616641	2.0	59.6	
2022-04-30 14:41:12.119192	11.0	59.6	
2022-04-30 14:41:12.621803	8.8	59.6	
2022-04-30 14:41:13.124337	11.1	59.6	
2022-04-30 14:41:13.626426	8.0	59.6	
2022-04-30 14:41:14.129143	8.0	59.6	
2022-04-30 14:41:14.631573	13.0	59.6	
2022-04-30 14:41:15.134250	7.0	59.6	
2022-04-30 14:41:15.636838	5.1	59.6	
2022-04-30 14:41:16.139712	9.9	59.6	
2022-04-30 14:41:16.642278	11.0	59.6	
2022-04-30 14:41:17.144757	8.1	59.6	
2022-04-30 14:41:17.647202	21.0	59.6	
2022-04-30 14:41:18.149410	6.1	59.6	
2022-04-30 14:41:18.652408	2.0	59.6	
2022-04-30 14:41:19.155467	0.0	59.6	
2022-04-30 14:41:19.658276	1.0	59.6	
2022-04-30 14:41:20.160407	1.0	59.6	
2022-04-30 14:41:20.662773	1.0	59.6	
2022-04-30 14:41:21.165390	0.0	59.6	
2022-04-30 14:41:21.667817	1.0	59.6	
2022-04-30 14:41:22.170186	0.0	59.6	
2022-04-30 14:41:22.672425	2.0	59.6	
2022-04-30 14:41:23.174821	0.0	59.6	
2022-04-30 14:41:23.677190	1.0	59.6	
2022-04-30 14:41:24.179641	0.0	59.6	
2022-04-30 14:41:24.682145	1.0	59.6	
2022-04-30 14:41:25.185075	1.0	59.6	
2022-04-30 14:41:25.687800	0.0	59.6	
2022-04-30 14:41:26.191229	1.0	59.5	
2022-04-30 14:41:26.693419	1.0	59.5	
2022-04-30 14:41:27.195430	1.0	59.5	
2022-04-30 14:41:27.697804	2.0	59.5	
2022-04-30 14:41:28.200098	1.0	59.5	
2022-04-30 14:41:28.702519	1.0	59.5	
2022-04-30 14:41:29.204839	1.0	59.5	
2022-04-30 14:41:29.706859	3.0	59.5	
2022-04-30 14:41:30.209404	0.0	59.5	
2022-04-30 14:41:30.711719	1.0	59.5	
2022-04-30 14:41:31.214013	0.0	59.5	
2022-04-30 14:41:31.715962	8.1	59.2	
2022-04-30 14:41:32.217889	25.0	22.3	
2022-04-30 14:41:32.720045	0.0	22.3	
2022-04-30 14:41:33.222329	2.0	22.3	
2022-04-30 14:41:33.724732	1.0	22.3	
2022-04-30 14:41:34.227195	0.0	22.3	
2022-04-30 14:41:34.729752	2.0	22.3	
2022-04-30 14:41:35.233232	0.0	22.3	
2022-04-30 14:41:35.735568	1.0	22.3	
2022-04-30 14:41:36.237967	1.0	22.3	
2022-04-30 14:41:36.740345	0.0	22.3	
2022-04-30 14:41:37.242531	1.0	22.3	
2022-04-30 14:41:37.744973	0.0	22.3	
2022-04-30 14:41:38.247243	1.0	22.3	
2022-04-30 14:41:38.749701	2.0	22.3	
2022-04-30 14:41:39.252460	0.0	22.3	
2022-04-30 14:41:39.754992	0.0	22.3	
2022-04-30 14:41:40.258426	0.0	22.3	
2022-04-30 14:41:40.760851	4.9	22.2	
2022-04-30 14:41:41.263202	0.0	22.2	
2022-04-30 14:41:41.765748	1.0	22.2	
2022-04-30 14:41:42.268370	1.0	22.2	
2022-04-30 14:41:42.770926	0.0	22.2	
2022-04-30 14:41:43.273289	0.0	22.2	
2022-04-30 14:41:43.775763	0.0	22.2	
2022-04-30 14:41:44.278083	1.0	22.2	
2022-04-30 14:41:44.780337	0.0	22.2	
